2020-02-19 13:51:57 - Array
(
    [811] => 3
)

2020-02-25 10:00:45 - Array
(
    [818] => 3
)

2020-02-25 10:00:48 - Array
(
    [818] => 4
)

2020-02-25 10:00:49 - Array
(
    [818] => 5
)

2020-02-25 10:00:50 - Array
(
    [818] => 6
)

2020-04-10 14:00:40 - Array
(
    [820] => 4
)

2020-04-10 14:00:40 - Array
(
    [820] => 3
)

