{
  "width": {
    "type": "Select",
    "value": "100",
    "selector": ".product-blocks-%s > .grid-rows > .grid-row-%s > .grid-cols > .grid-col-%s > .grid-items > .grid-item-%s",
    "property": "width: %s%"
  }
}
