{
  "name": {
    "type": "Input",
    "value": "New Links Menu"
  },
  "title": {
    "type": "InputLang",
    "php": true
  },
  "moduleTitle": {
    "type": "Variable",
    "variable": "title",
    "selector_prefix": ".links-menu-%s .module-title&"
  },
  "status": {
    "type": "Status"
  },
  "schedule": {
    "type": "Range",
    "php": true
  },
  "Background": {
    "type": "Background",
    "selector": ".links-menu-%s"
  },
  "Padding": {
    "type": "Padding",
    "selector": ".links-menu-%s ul.module-body"
  },
  "Direction": {
    "type": "Radio",
    "value": "vertical",
    "rules": {
      "vertical": {
        ".links-menu-%s .module-body": "display:block;",
        ".links-menu-%s .menu-item": "border-width: 1px 0 0 0",
        ".links-menu-%s .menu-item a .links-text":"white-space:normal"
      },
      "horizontal": {
        ".links-menu-%s .module-body": "display:flex; align-items:center; flex-wrap:wrap",
        ".links-menu-%s .menu-item": "border-width: 0 0 0 1px",
        ".links-menu-%s .menu-item a .links-text":"white-space:nowrap"
      }
    },
    "rtlRules": {
      "vertical": {
        ".links-menu-%s .module-body": "display:block;",
        ".links-menu-%s .menu-item": "border-width: 1px 0 0 0"
      },
      "horizontal": {
        ".links-menu-%s .module-body": "display:flex; align-items:center; flex-wrap:wrap",
        ".links-menu-%s .menu-item": "border-width: 0 1px 0 0"
      }
    }
  },
  "layout": {
    "type": "Radio",
    "value": "start",
    "rules": {
      "start": {
        ".links-menu-%s .menu-item": "flex-grow:0",
        ".links-menu-%s .module-body": "justify-content: flex-start;"
      },
      "stretch": {
        ".links-menu-%s .menu-item": "flex-grow:1",
        ".links-menu-%s .menu-item a": "justify-content: center; display:flex;"
      },
      "center": {
        ".links-menu-%s .menu-item": "flex-grow:0",
        ".links-menu-%s .module-body": "justify-content: center;"
      },
      "end": {
        ".links-menu-%s .menu-item": "flex-grow:0",
        ".links-menu-%s .module-body": "justify-content: flex-end;"
      }
    }
  },
  "itemFull": {
    "type": "Radio",
    "value": "auto",
    "rules": {
      "auto": {
        ".links-menu-%s .menu-item a": "width:auto"
      },
      "full": {
        ".links-menu-%s .menu-item a": "width:100%"
      }
    }
  },
  "itemBackground": {
    "type": "Background",
    "selector": ".links-menu-%s .menu-item"
  },
  "itemBackgroundHover": {
    "type": "Background",
    "selector": ".links-menu-%s .menu-item:hover"
  },
  "itemPadding": {
    "type": "Padding",
    "selector": ".links-menu-%s .menu-item a"
  },
  "itemFont": {
    "type": "Font",
    "selector": ".links-menu-%s .menu-item a span"
  },
  "itemFontHover": {
    "type": "Font",
    "selector": ".links-menu-%s .menu-item a:hover span"
  },
  "itemIcon": {
    "type": "Icon",
    "selector": ".links-menu-%s .menu-item a::before"
  },
  "itemIconHover": {
    "type": "Color",
    "selector": ".links-menu-%s .menu-item a:hover::before",
    "property": "color"
  },
  "itemDivider": {
    "type": "Divider",
    "selector": ".links-menu-%s .menu-item"
  },
  "itemDividerHover": {
    "type": "Color",
    "rules": {
      "@": {
        ".links-menu-%s .menu-item:hover": "border-color:%s",
        ".links-menu-%s .menu-item:hover + .menu-item": "border-color:%s"
      }
    }
  },
  "Scroll": {
    "type": "Toggle",
    "value": "false",
    "rules": {
      "true": {
        ".links-menu-%s .module-body": "flex-wrap: nowrap; overflow-x: auto; overflow-y: hidden",
        ".mobile.touchevents .links-menu-%s .module-body": "overflow-x: scroll",
        ".links-menu-%s .module-body::-webkit-scrollbar": "-webkit-appearance: none; height: 3px",
        ".links-menu-%s .module-body::-webkit-scrollbar-track": "background-color: white",
        ".links-menu-%s .module-body::-webkit-scrollbar-thumb": "background-color: #999"
      }
    }
  },
  "ScrollColor": {
    "type": "Color",
    "selector": ".links-menu-%s .module-body::-webkit-scrollbar-thumb",
    "property": "background-color"
  },
  "TrackColor": {
    "type": "Color",
    "selector": ".links-menu-%s .module-body::-webkit-scrollbar-track",
    "property": "background-color"
  },
  "ScrollTouch": {
    "type": "Toggle",
    "value": "true",
    "rules": {
      "true": {
        ".links-menu-%s .module-body": "-webkit-overflow-scrolling:touch;"
      }
    }
  }
}
