{
  "headerMobileMenuIcon": {
    "type": "Icon",
    "selector": ".mobile-header-active .menu-trigger::before",
    "value": {
      "icon": {
        "name": "bars",
        "code": "f0c9"
      }
    }
  },

  "headerMobileMenuIconBG": {
    "type": "Background",
    "selector": ".mobile-header-active .menu-trigger"
  },

  "headerMobileMenuTitle": {
    "type": "InputLang",
    "value": "Menu",
    "php": true
  },

  "headerMobileMenuWidth": {
    "type": "InputNumber",
    "value": "50",
    "rules":{
      "@":{
        ".mobile-header-active .menu-trigger": "width:%spx"
      }
    }
  },

  "headerMobileMenuRadius": {
    "type": "BorderRadius",
    "selector": ".mobile-header-active .menu-trigger"
  },

  "headerMobileMenuStyle": {
    "type": "Variable",
    "variable": "accordion_menu",
    "selector_prefix": ".mobile-main-menu-wrapper .main-menu"
  },

  "headerMobileMenuWrapperStyle": {
    "type": "Variable",
    "variable": "mobile_wrapper",
    "selector_prefix": ".mobile-header-active"
  }
}
