{
  "headerMobileTopBarHeight": {
    "type": "InputNumber",
    "value": "35",
    "rules": {
      "@": {
        ".mobile-header-active .mobile-header .mobile-top-bar": "height: %spx"
      }
    }
  },
  "headerMobileTopPadding": {
    "type": "Padding",
    "selector": ".mobile-header-active .mobile-header .mobile-top-bar"
  },
  "headerMobileTopBarBG": {
    "type": "Background",
    "selector": ".mobile-header-active .mobile-header .mobile-top-bar"
  },
  "headerMobileTopBarShadow": {
    "type": "Shadow",
    "selector": ".mobile-header-active .mobile-header .mobile-top-bar"
  }
}
