{
  "name": {
    "type": "Input",
    "value": "New Item"
  },
  "title": {
    "type": "InputLang",
    "php": true
  },
  "status": {
    "type": "Status"
  },
  "icon": {
    "type": "Icon",
    "selector": ".bottom-menu-%s .bottom-menu-item-%s > a::before"
  },
  "link": {
    "type": "Link",
    "php": true
  }
}
