{
  "name": {
    "type": "Input",
    "value": "New Form "
  },
  "status": {
    "type": "Status"
  },
  "schedule": {
    "type": "Range",
    "php": true
  },
  "title": {
    "type": "InputLang",
    "value": "Contact Us",
    "php": true
  },
  "formStyle": {
    "type": "Variable",
    "variable": "form",
    "selector_prefix": ".module-form-%s"
  },
  "moduleTitle": {
    "type": "Variable",
    "variable": "title",
    "selector_prefix": ".module-form-%s .module-title&"
  },
  "pageButtons": {
    "type": "Variable",
    "variable": "page_buttons",
    "selector_prefix": ".module-form-%s"
  },
  "background": {
    "type": "Background",
    "selector": ".module-form-%s"
  },
  "padding": {
    "type": "Padding",
    "selector": ".module-form-%s"
  }
}
