{
  "status": {
    "type": "Status"
  },
  "width": {
    "type": "Input",
    "value": "100",
    "selector": ".module-popup-%s .grid-row-%s .grid-col-%s",
    "property": "width: %s%"
  },
  "name": {
    "type": "InputLang",
    "value": "New Column",
    "php": true
  },
  "background": {
    "type": "Background",
    "selector": ".module-popup-%s .grid-row-%s .grid-col-%s"
  },
  "padding": {
    "type": "Padding",
    "selector": ".module-popup-%s .grid-row-%s .grid-col-%s"
  },
  "align": {
    "type": "Radio",
    "value": "top",
    "rules": {
      "top": {
        ".module-popup-%s .grid-row-%s .grid-col-%s .grid-items": "justify-content: flex-start"
      },
      "center": {
        ".module-popup-%s .grid-row-%s .grid-col-%s .grid-items": "justify-content: center"
      },
      "bottom": {
        ".module-popup-%s .grid-row-%s .grid-col-%s .grid-items": "justify-content: flex-end"
      }
    }
  }
}
