{
  "status": {
    "type": "Status"
  },
  "width": {
    "type": "Select",
    "value": "100",
    "selector": "footer .grid-row-%s .grid-col-%s",
    "property": "width: %s%"
  },
  "background": {
    "type": "Background",
    "selector": "footer .grid-row-%s .grid-col-%s"
  },
  "border": {
    "type": "Border",
    "selector": "footer .grid-row-%s .grid-col-%s"
  },
  "padding": {
    "type": "Padding",
    "selector": "footer .grid-row-%s .grid-col-%s"
  },
  "align": {
    "type": "Radio",
    "value": "top",
    "rules": {
      "top": {
        "footer .grid-row-%s .grid-col-%s .grid-items": "justify-content: flex-start"
      },
      "middle": {
        "footer .grid-row-%s .grid-col-%s .grid-items": "justify-content: center"
      },
      "bottom": {
        "footer .grid-row-%s .grid-col-%s .grid-items": "justify-content: flex-end"
      }
    }
  },
  "margin": {
    "type": "InputNumber",
    "rules":{
      "@":{
        "footer .grid-row-%s .grid-col-%s": "margin-bottom:%spx"
      }
    }
  }
}
